^C:\USERS\OWNER\DESKTOP\CS 250\STL LABS\LAB-STANDARD-TEMPLATE-LIBRARY\PART 5 - MAPS\STL_MAPS.CPP
C:\USERS\OWNER\DESKTOP\CS 250\STL LABS\LAB-STANDARD-TEMPLATE-LIBRARY\PART 5 - MAPS\PROJECT5\PROJECT5\DEBUG\VC140.PDB
C:\USERS\OWNER\DESKTOP\CS 250\STL LABS\LAB-STANDARD-TEMPLATE-LIBRARY\PART 5 - MAPS\PROJECT5\PROJECT5\DEBUG\VC140.IDB
C:\USERS\OWNER\DESKTOP\CS 250\STL LABS\LAB-STANDARD-TEMPLATE-LIBRARY\PART 5 - MAPS\PROJECT5\PROJECT5\DEBUG\STL_MAPS.OBJ
