^C:\USERS\OWNER\DESKTOP\CS 250\CS-250\PROJECTS\PROJECT2-LINKED-STACK\COURSECATALOG.CPP|C:\USERS\OWNER\DESKTOP\CS 250\CS-250\PROJECTS\PROJECT2-LINKED-STACK\CUTEST\TESTERBASE.CPP|C:\USERS\OWNER\DESKTOP\CS 250\CS-250\PROJECTS\PROJECT2-LINKED-STACK\PREREQ_FINDER.CPP
C:\USERS\OWNER\DESKTOP\PROJECT STACKS\PROJECT1\PROJECT1\DEBUG\VC140.PDB
C:\USERS\OWNER\DESKTOP\PROJECT STACKS\PROJECT1\PROJECT1\DEBUG\VC140.IDB
C:\USERS\OWNER\DESKTOP\PROJECT STACKS\PROJECT1\PROJECT1\DEBUG\COURSECATALOG.OBJ
C:\USERS\OWNER\DESKTOP\PROJECT STACKS\PROJECT1\PROJECT1\DEBUG\TESTERBASE.OBJ
^C:\USERS\OWNER\DESKTOP\CS 250\CS-250\PROJECTS\PROJECT2-LINKED-STACK\COURSECATALOG.CPP
C:\USERS\OWNER\DESKTOP\PROJECT STACKS\PROJECT1\PROJECT1\DEBUG\VC140.PDB
C:\USERS\OWNER\DESKTOP\PROJECT STACKS\PROJECT1\PROJECT1\DEBUG\VC140.IDB
^C:\USERS\OWNER\DESKTOP\CS 250\CS-250\PROJECTS\PROJECT2-LINKED-STACK\CUTEST\TESTERBASE.CPP
C:\USERS\OWNER\DESKTOP\PROJECT STACKS\PROJECT1\PROJECT1\DEBUG\VC140.PDB
^C:\USERS\OWNER\DESKTOP\CS 250\CS-250\PROJECTS\PROJECT2-LINKED-STACK\PREREQ_FINDER.CPP
C:\USERS\OWNER\DESKTOP\PROJECT STACKS\PROJECT1\PROJECT1\DEBUG\VC140.PDB
^C:\USERS\OWNER\DESKTOP\CS 250\CS-250\PROJECTS\PROJECT2-LINKED-STACK\COURSECATALOG.CPP|C:\USERS\OWNER\DESKTOP\CS 250\CS-250\PROJECTS\PROJECT2-LINKED-STACK\PREREQ_FINDER.CPP
C:\USERS\OWNER\DESKTOP\PROJECT STACKS\PROJECT1\PROJECT1\DEBUG\VC140.PDB
C:\USERS\OWNER\DESKTOP\PROJECT STACKS\PROJECT1\PROJECT1\DEBUG\VC140.IDB
C:\USERS\OWNER\DESKTOP\PROJECT STACKS\PROJECT1\PROJECT1\DEBUG\COURSECATALOG.OBJ
C:\USERS\OWNER\DESKTOP\PROJECT STACKS\PROJECT1\PROJECT1\DEBUG\PREREQ_FINDER.OBJ
