^C:\USERS\OWNER\DESKTOP\PROJECT STACKS\PROJECT1\PROJECT1\DEBUG\COURSECATALOG.OBJ|C:\USERS\OWNER\DESKTOP\PROJECT STACKS\PROJECT1\PROJECT1\DEBUG\PREREQ_FINDER.OBJ|C:\USERS\OWNER\DESKTOP\PROJECT STACKS\PROJECT1\PROJECT1\DEBUG\TESTERBASE.OBJ
C:\USERS\OWNER\DESKTOP\PROJECT STACKS\PROJECT1\DEBUG\PROJECT1.ILK
C:\USERS\OWNER\DESKTOP\PROJECT STACKS\PROJECT1\DEBUG\PROJECT1.EXE
C:\USERS\OWNER\DESKTOP\PROJECT STACKS\PROJECT1\DEBUG\PROJECT1.PDB
