^C:\USERS\OWNER\DESKTOP\CS 250\CS-250\LABS\LAB-RECURSION-INTRO\PROGRAM_MAIN.CPP
C:\USERS\OWNER\DESKTOP\CS 250\CS-250\LABS\LAB-RECURSION-INTRO\LAB RECURSION\LAB RECURSION\DEBUG\VC140.PDB
C:\USERS\OWNER\DESKTOP\CS 250\CS-250\LABS\LAB-RECURSION-INTRO\LAB RECURSION\LAB RECURSION\DEBUG\VC140.IDB
