^C:\USERS\OWNER\DESKTOP\CS 250\CS-250\LABS\LAB-UNIT-TESTS\TESTER_PROGRAM.CPP
C:\USERS\OWNER\DESKTOP\CS 250\CS-250\LABS\LAB-UNIT-TESTS\UNIT TESTS\UNIT TESTS\DEBUG\VC140.PDB
C:\USERS\OWNER\DESKTOP\CS 250\CS-250\LABS\LAB-UNIT-TESTS\UNIT TESTS\UNIT TESTS\DEBUG\VC140.IDB
C:\USERS\OWNER\DESKTOP\CS 250\CS-250\LABS\LAB-UNIT-TESTS\UNIT TESTS\UNIT TESTS\DEBUG\TESTER_PROGRAM.OBJ
