^C:\USERS\OWNER\DESKTOP\CS 250\CS-250\PROJECTS\PROJECT4-DICTIONARIES\PROJECT4-DICTIONARIES\PROJECT2\PROJECT2\DEBUG\MAIN.OBJ|C:\USERS\OWNER\DESKTOP\CS 250\CS-250\PROJECTS\PROJECT4-DICTIONARIES\PROJECT4-DICTIONARIES\PROJECT2\PROJECT2\DEBUG\TESTERBASE.OBJ
C:\USERS\OWNER\DESKTOP\CS 250\CS-250\PROJECTS\PROJECT4-DICTIONARIES\PROJECT4-DICTIONARIES\PROJECT2\DEBUG\PROJECT2.EXE
C:\USERS\OWNER\DESKTOP\CS 250\CS-250\PROJECTS\PROJECT4-DICTIONARIES\PROJECT4-DICTIONARIES\PROJECT2\DEBUG\PROJECT2.ILK
C:\USERS\OWNER\DESKTOP\CS 250\CS-250\PROJECTS\PROJECT4-DICTIONARIES\PROJECT4-DICTIONARIES\PROJECT2\DEBUG\PROJECT2.PDB
