^C:\USERS\OWNER\DESKTOP\CS 250\CS-250\LABS\LAB-DEBUGGING-TOOLS\DEBUGGING TOOLS\DEBUGGING TOOLS\DEBUG\MAIN.OBJ
C:\USERS\OWNER\DESKTOP\CS 250\CS-250\LABS\LAB-DEBUGGING-TOOLS\DEBUGGING TOOLS\DEBUG\DEBUGGING TOOLS.ILK
C:\USERS\OWNER\DESKTOP\CS 250\CS-250\LABS\LAB-DEBUGGING-TOOLS\DEBUGGING TOOLS\DEBUG\DEBUGGING TOOLS.EXE
C:\USERS\OWNER\DESKTOP\CS 250\CS-250\LABS\LAB-DEBUGGING-TOOLS\DEBUGGING TOOLS\DEBUG\DEBUGGING TOOLS.PDB
